^C:\USERS\ADMINISTRATOR\DOCUMENTS\VISUAL STUDIO 2012\PROJECTS\HMPSCLUA4\SCCONTROLLER\LUA4.0\WIN32\RELEASE\LAPI.OBJ|C:\USERS\ADMINISTRATOR\DOCUMENTS\VISUAL STUDIO 2012\PROJECTS\HMPSCLUA4\SCCONTROLLER\LUA4.0\WIN32\RELEASE\LAUXLIB.OBJ|C:\USERS\ADMINISTRATOR\DOCUMENTS\VISUAL STUDIO 2012\PROJECTS\HMPSCLUA4\SCCONTROLLER\LUA4.0\WIN32\RELEASE\LBASELIB.OBJ|C:\USERS\ADMINISTRATOR\DOCUMENTS\VISUAL STUDIO 2012\PROJECTS\HMPSCLUA4\SCCONTROLLER\LUA4.0\WIN32\RELEASE\LCODE.OBJ|C:\USERS\ADMINISTRATOR\DOCUMENTS\VISUAL STUDIO 2012\PROJECTS\HMPSCLUA4\SCCONTROLLER\LUA4.0\WIN32\RELEASE\LDBLIB.OBJ|C:\USERS\ADMINISTRATOR\DOCUMENTS\VISUAL STUDIO 2012\PROJECTS\HMPSCLUA4\SCCONTROLLER\LUA4.0\WIN32\RELEASE\LDEBUG.OBJ|C:\USERS\ADMINISTRATOR\DOCUMENTS\VISUAL STUDIO 2012\PROJECTS\HMPSCLUA4\SCCONTROLLER\LUA4.0\WIN32\RELEASE\LDO.OBJ|C:\USERS\ADMINISTRATOR\DOCUMENTS\VISUAL STUDIO 2012\PROJECTS\HMPSCLUA4\SCCONTROLLER\LUA4.0\WIN32\RELEASE\LFUNC.OBJ|C:\USERS\ADMINISTRATOR\DOCUMENTS\VISUAL STUDIO 2012\PROJECTS\HMPSCLUA4\SCCONTROLLER\LUA4.0\WIN32\RELEASE\LGC.OBJ|C:\USERS\ADMINISTRATOR\DOCUMENTS\VISUAL STUDIO 2012\PROJECTS\HMPSCLUA4\SCCONTROLLER\LUA4.0\WIN32\RELEASE\LIOLIB.OBJ|C:\USERS\ADMINISTRATOR\DOCUMENTS\VISUAL STUDIO 2012\PROJECTS\HMPSCLUA4\SCCONTROLLER\LUA4.0\WIN32\RELEASE\LLEX.OBJ|C:\USERS\ADMINISTRATOR\DOCUMENTS\VISUAL STUDIO 2012\PROJECTS\HMPSCLUA4\SCCONTROLLER\LUA4.0\WIN32\RELEASE\LMATHLIB.OBJ|C:\USERS\ADMINISTRATOR\DOCUMENTS\VISUAL STUDIO 2012\PROJECTS\HMPSCLUA4\SCCONTROLLER\LUA4.0\WIN32\RELEASE\LMEM.OBJ|C:\USERS\ADMINISTRATOR\DOCUMENTS\VISUAL STUDIO 2012\PROJECTS\HMPSCLUA4\SCCONTROLLER\LUA4.0\WIN32\RELEASE\LOBJECT.OBJ|C:\USERS\ADMINISTRATOR\DOCUMENTS\VISUAL STUDIO 2012\PROJECTS\HMPSCLUA4\SCCONTROLLER\LUA4.0\WIN32\RELEASE\LPARSER.OBJ|C:\USERS\ADMINISTRATOR\DOCUMENTS\VISUAL STUDIO 2012\PROJECTS\HMPSCLUA4\SCCONTROLLER\LUA4.0\WIN32\RELEASE\LSTATE.OBJ|C:\USERS\ADMINISTRATOR\DOCUMENTS\VISUAL STUDIO 2012\PROJECTS\HMPSCLUA4\SCCONTROLLER\LUA4.0\WIN32\RELEASE\LSTRING.OBJ|C:\USERS\ADMINISTRATOR\DOCUMENTS\VISUAL STUDIO 2012\PROJECTS\HMPSCLUA4\SCCONTROLLER\LUA4.0\WIN32\RELEASE\LSTRLIB.OBJ|C:\USERS\ADMINISTRATOR\DOCUMENTS\VISUAL STUDIO 2012\PROJECTS\HMPSCLUA4\SCCONTROLLER\LUA4.0\WIN32\RELEASE\LS_ODBC.OBJ|C:\USERS\ADMINISTRATOR\DOCUMENTS\VISUAL STUDIO 2012\PROJECTS\HMPSCLUA4\SCCONTROLLER\LUA4.0\WIN32\RELEASE\LTABLE.OBJ|C:\USERS\ADMINISTRATOR\DOCUMENTS\VISUAL STUDIO 2012\PROJECTS\HMPSCLUA4\SCCONTROLLER\LUA4.0\WIN32\RELEASE\LTESTS.OBJ|C:\USERS\ADMINISTRATOR\DOCUMENTS\VISUAL STUDIO 2012\PROJECTS\HMPSCLUA4\SCCONTROLLER\LUA4.0\WIN32\RELEASE\LTM.OBJ|C:\USERS\ADMINISTRATOR\DOCUMENTS\VISUAL STUDIO 2012\PROJECTS\HMPSCLUA4\SCCONTROLLER\LUA4.0\WIN32\RELEASE\LUASOCKET.OBJ|C:\USERS\ADMINISTRATOR\DOCUMENTS\VISUAL STUDIO 2012\PROJECTS\HMPSCLUA4\SCCONTROLLER\LUA4.0\WIN32\RELEASE\LUASQL.OBJ|C:\USERS\ADMINISTRATOR\DOCUMENTS\VISUAL STUDIO 2012\PROJECTS\HMPSCLUA4\SCCONTROLLER\LUA4.0\WIN32\RELEASE\LUNDUMP.OBJ|C:\USERS\ADMINISTRATOR\DOCUMENTS\VISUAL STUDIO 2012\PROJECTS\HMPSCLUA4\SCCONTROLLER\LUA4.0\WIN32\RELEASE\LVM.OBJ|C:\USERS\ADMINISTRATOR\DOCUMENTS\VISUAL STUDIO 2012\PROJECTS\HMPSCLUA4\SCCONTROLLER\LUA4.0\WIN32\RELEASE\LZIO.OBJ
C:\USERS\ADMINISTRATOR\DOCUMENTS\VISUAL STUDIO 2012\PROJECTS\HMPSCLUA4\SCCONTROLLER\WIN32\RELEASE\LUA4.0.LIB
^C:\PROJETOS\C++\SCCONTROLLER\LUA4.0\WIN32\RELEASE\LAPI.OBJ|C:\PROJETOS\C++\SCCONTROLLER\LUA4.0\WIN32\RELEASE\LAUXLIB.OBJ|C:\PROJETOS\C++\SCCONTROLLER\LUA4.0\WIN32\RELEASE\LBASELIB.OBJ|C:\PROJETOS\C++\SCCONTROLLER\LUA4.0\WIN32\RELEASE\LCODE.OBJ|C:\PROJETOS\C++\SCCONTROLLER\LUA4.0\WIN32\RELEASE\LDBLIB.OBJ|C:\PROJETOS\C++\SCCONTROLLER\LUA4.0\WIN32\RELEASE\LDEBUG.OBJ|C:\PROJETOS\C++\SCCONTROLLER\LUA4.0\WIN32\RELEASE\LDO.OBJ|C:\PROJETOS\C++\SCCONTROLLER\LUA4.0\WIN32\RELEASE\LFUNC.OBJ|C:\PROJETOS\C++\SCCONTROLLER\LUA4.0\WIN32\RELEASE\LGC.OBJ|C:\PROJETOS\C++\SCCONTROLLER\LUA4.0\WIN32\RELEASE\LIOLIB.OBJ|C:\PROJETOS\C++\SCCONTROLLER\LUA4.0\WIN32\RELEASE\LLEX.OBJ|C:\PROJETOS\C++\SCCONTROLLER\LUA4.0\WIN32\RELEASE\LMATHLIB.OBJ|C:\PROJETOS\C++\SCCONTROLLER\LUA4.0\WIN32\RELEASE\LMEM.OBJ|C:\PROJETOS\C++\SCCONTROLLER\LUA4.0\WIN32\RELEASE\LOBJECT.OBJ|C:\PROJETOS\C++\SCCONTROLLER\LUA4.0\WIN32\RELEASE\LPARSER.OBJ|C:\PROJETOS\C++\SCCONTROLLER\LUA4.0\WIN32\RELEASE\LSTATE.OBJ|C:\PROJETOS\C++\SCCONTROLLER\LUA4.0\WIN32\RELEASE\LSTRING.OBJ|C:\PROJETOS\C++\SCCONTROLLER\LUA4.0\WIN32\RELEASE\LSTRLIB.OBJ|C:\PROJETOS\C++\SCCONTROLLER\LUA4.0\WIN32\RELEASE\LS_ODBC.OBJ|C:\PROJETOS\C++\SCCONTROLLER\LUA4.0\WIN32\RELEASE\LTABLE.OBJ|C:\PROJETOS\C++\SCCONTROLLER\LUA4.0\WIN32\RELEASE\LTESTS.OBJ|C:\PROJETOS\C++\SCCONTROLLER\LUA4.0\WIN32\RELEASE\LTM.OBJ|C:\PROJETOS\C++\SCCONTROLLER\LUA4.0\WIN32\RELEASE\LUASOCKET.OBJ|C:\PROJETOS\C++\SCCONTROLLER\LUA4.0\WIN32\RELEASE\LUASQL.OBJ|C:\PROJETOS\C++\SCCONTROLLER\LUA4.0\WIN32\RELEASE\LUNDUMP.OBJ|C:\PROJETOS\C++\SCCONTROLLER\LUA4.0\WIN32\RELEASE\LVM.OBJ|C:\PROJETOS\C++\SCCONTROLLER\LUA4.0\WIN32\RELEASE\LZIO.OBJ
C:\PROJETOS\C++\SCCONTROLLER\WIN32\RELEASE\LUA4.0.LIB
