^C:\TEMP\RODRIGOFRANCA\SCCONTROLLER\SCCONTROLLER\LUA4.0\LAPI.C
/c /Zi /nologo /W3 /WX- /Od /D WIN32 /D _DEBUG /D _LIB /D _MBCS /Gm /EHsc /RTC1 /MTd /GS /fp:precise /Zc:wchar_t /Zc:forScope /Fo"X64\DEBUG\\" /Fd"X64\DEBUG\VC110.PDB" /Gd /TC C:\TEMP\RODRIGOFRANCA\SCCONTROLLER\SCCONTROLLER\LUA4.0\LAPI.C
^C:\TEMP\RODRIGOFRANCA\SCCONTROLLER\SCCONTROLLER\LUA4.0\LAUXLIB.C
/c /Zi /nologo /W3 /WX- /Od /D WIN32 /D _DEBUG /D _LIB /D _MBCS /Gm /EHsc /RTC1 /MTd /GS /fp:precise /Zc:wchar_t /Zc:forScope /Fo"X64\DEBUG\\" /Fd"X64\DEBUG\VC110.PDB" /Gd /TC C:\TEMP\RODRIGOFRANCA\SCCONTROLLER\SCCONTROLLER\LUA4.0\LAUXLIB.C
^C:\TEMP\RODRIGOFRANCA\SCCONTROLLER\SCCONTROLLER\LUA4.0\LBASELIB.C
/c /Zi /nologo /W3 /WX- /Od /D WIN32 /D _DEBUG /D _LIB /D _MBCS /Gm /EHsc /RTC1 /MTd /GS /fp:precise /Zc:wchar_t /Zc:forScope /Fo"X64\DEBUG\\" /Fd"X64\DEBUG\VC110.PDB" /Gd /TC C:\TEMP\RODRIGOFRANCA\SCCONTROLLER\SCCONTROLLER\LUA4.0\LBASELIB.C
^C:\TEMP\RODRIGOFRANCA\SCCONTROLLER\SCCONTROLLER\LUA4.0\LCODE.C
/c /Zi /nologo /W3 /WX- /Od /D WIN32 /D _DEBUG /D _LIB /D _MBCS /Gm /EHsc /RTC1 /MTd /GS /fp:precise /Zc:wchar_t /Zc:forScope /Fo"X64\DEBUG\\" /Fd"X64\DEBUG\VC110.PDB" /Gd /TC C:\TEMP\RODRIGOFRANCA\SCCONTROLLER\SCCONTROLLER\LUA4.0\LCODE.C
^C:\TEMP\RODRIGOFRANCA\SCCONTROLLER\SCCONTROLLER\LUA4.0\LDBLIB.C
/c /Zi /nologo /W3 /WX- /Od /D WIN32 /D _DEBUG /D _LIB /D _MBCS /Gm /EHsc /RTC1 /MTd /GS /fp:precise /Zc:wchar_t /Zc:forScope /Fo"X64\DEBUG\\" /Fd"X64\DEBUG\VC110.PDB" /Gd /TC C:\TEMP\RODRIGOFRANCA\SCCONTROLLER\SCCONTROLLER\LUA4.0\LDBLIB.C
^C:\TEMP\RODRIGOFRANCA\SCCONTROLLER\SCCONTROLLER\LUA4.0\LDEBUG.C
/c /Zi /nologo /W3 /WX- /Od /D WIN32 /D _DEBUG /D _LIB /D _MBCS /Gm /EHsc /RTC1 /MTd /GS /fp:precise /Zc:wchar_t /Zc:forScope /Fo"X64\DEBUG\\" /Fd"X64\DEBUG\VC110.PDB" /Gd /TC C:\TEMP\RODRIGOFRANCA\SCCONTROLLER\SCCONTROLLER\LUA4.0\LDEBUG.C
^C:\TEMP\RODRIGOFRANCA\SCCONTROLLER\SCCONTROLLER\LUA4.0\LDO.C
/c /Zi /nologo /W3 /WX- /Od /D WIN32 /D _DEBUG /D _LIB /D _MBCS /Gm /EHsc /RTC1 /MTd /GS /fp:precise /Zc:wchar_t /Zc:forScope /Fo"X64\DEBUG\\" /Fd"X64\DEBUG\VC110.PDB" /Gd /TC C:\TEMP\RODRIGOFRANCA\SCCONTROLLER\SCCONTROLLER\LUA4.0\LDO.C
^C:\TEMP\RODRIGOFRANCA\SCCONTROLLER\SCCONTROLLER\LUA4.0\LFUNC.C
/c /Zi /nologo /W3 /WX- /Od /D WIN32 /D _DEBUG /D _LIB /D _MBCS /Gm /EHsc /RTC1 /MTd /GS /fp:precise /Zc:wchar_t /Zc:forScope /Fo"X64\DEBUG\\" /Fd"X64\DEBUG\VC110.PDB" /Gd /TC C:\TEMP\RODRIGOFRANCA\SCCONTROLLER\SCCONTROLLER\LUA4.0\LFUNC.C
^C:\TEMP\RODRIGOFRANCA\SCCONTROLLER\SCCONTROLLER\LUA4.0\LGC.C
/c /Zi /nologo /W3 /WX- /Od /D WIN32 /D _DEBUG /D _LIB /D _MBCS /Gm /EHsc /RTC1 /MTd /GS /fp:precise /Zc:wchar_t /Zc:forScope /Fo"X64\DEBUG\\" /Fd"X64\DEBUG\VC110.PDB" /Gd /TC C:\TEMP\RODRIGOFRANCA\SCCONTROLLER\SCCONTROLLER\LUA4.0\LGC.C
^C:\TEMP\RODRIGOFRANCA\SCCONTROLLER\SCCONTROLLER\LUA4.0\LIOLIB.C
/c /Zi /nologo /W3 /WX- /Od /D WIN32 /D _DEBUG /D _LIB /D _MBCS /Gm /EHsc /RTC1 /MTd /GS /fp:precise /Zc:wchar_t /Zc:forScope /Fo"X64\DEBUG\\" /Fd"X64\DEBUG\VC110.PDB" /Gd /TC C:\TEMP\RODRIGOFRANCA\SCCONTROLLER\SCCONTROLLER\LUA4.0\LIOLIB.C
^C:\TEMP\RODRIGOFRANCA\SCCONTROLLER\SCCONTROLLER\LUA4.0\LLEX.C
/c /Zi /nologo /W3 /WX- /Od /D WIN32 /D _DEBUG /D _LIB /D _MBCS /Gm /EHsc /RTC1 /MTd /GS /fp:precise /Zc:wchar_t /Zc:forScope /Fo"X64\DEBUG\\" /Fd"X64\DEBUG\VC110.PDB" /Gd /TC C:\TEMP\RODRIGOFRANCA\SCCONTROLLER\SCCONTROLLER\LUA4.0\LLEX.C
^C:\TEMP\RODRIGOFRANCA\SCCONTROLLER\SCCONTROLLER\LUA4.0\LMATHLIB.C
/c /Zi /nologo /W3 /WX- /Od /D WIN32 /D _DEBUG /D _LIB /D _MBCS /Gm /EHsc /RTC1 /MTd /GS /fp:precise /Zc:wchar_t /Zc:forScope /Fo"X64\DEBUG\\" /Fd"X64\DEBUG\VC110.PDB" /Gd /TC C:\TEMP\RODRIGOFRANCA\SCCONTROLLER\SCCONTROLLER\LUA4.0\LMATHLIB.C
^C:\TEMP\RODRIGOFRANCA\SCCONTROLLER\SCCONTROLLER\LUA4.0\LMEM.C
/c /Zi /nologo /W3 /WX- /Od /D WIN32 /D _DEBUG /D _LIB /D _MBCS /Gm /EHsc /RTC1 /MTd /GS /fp:precise /Zc:wchar_t /Zc:forScope /Fo"X64\DEBUG\\" /Fd"X64\DEBUG\VC110.PDB" /Gd /TC C:\TEMP\RODRIGOFRANCA\SCCONTROLLER\SCCONTROLLER\LUA4.0\LMEM.C
^C:\TEMP\RODRIGOFRANCA\SCCONTROLLER\SCCONTROLLER\LUA4.0\LOBJECT.C
/c /Zi /nologo /W3 /WX- /Od /D WIN32 /D _DEBUG /D _LIB /D _MBCS /Gm /EHsc /RTC1 /MTd /GS /fp:precise /Zc:wchar_t /Zc:forScope /Fo"X64\DEBUG\\" /Fd"X64\DEBUG\VC110.PDB" /Gd /TC C:\TEMP\RODRIGOFRANCA\SCCONTROLLER\SCCONTROLLER\LUA4.0\LOBJECT.C
^C:\TEMP\RODRIGOFRANCA\SCCONTROLLER\SCCONTROLLER\LUA4.0\LPARSER.C
/c /Zi /nologo /W3 /WX- /Od /D WIN32 /D _DEBUG /D _LIB /D _MBCS /Gm /EHsc /RTC1 /MTd /GS /fp:precise /Zc:wchar_t /Zc:forScope /Fo"X64\DEBUG\\" /Fd"X64\DEBUG\VC110.PDB" /Gd /TC C:\TEMP\RODRIGOFRANCA\SCCONTROLLER\SCCONTROLLER\LUA4.0\LPARSER.C
^C:\TEMP\RODRIGOFRANCA\SCCONTROLLER\SCCONTROLLER\LUA4.0\LSTATE.C
/c /Zi /nologo /W3 /WX- /Od /D WIN32 /D _DEBUG /D _LIB /D _MBCS /Gm /EHsc /RTC1 /MTd /GS /fp:precise /Zc:wchar_t /Zc:forScope /Fo"X64\DEBUG\\" /Fd"X64\DEBUG\VC110.PDB" /Gd /TC C:\TEMP\RODRIGOFRANCA\SCCONTROLLER\SCCONTROLLER\LUA4.0\LSTATE.C
^C:\TEMP\RODRIGOFRANCA\SCCONTROLLER\SCCONTROLLER\LUA4.0\LSTRING.C
/c /Zi /nologo /W3 /WX- /Od /D WIN32 /D _DEBUG /D _LIB /D _MBCS /Gm /EHsc /RTC1 /MTd /GS /fp:precise /Zc:wchar_t /Zc:forScope /Fo"X64\DEBUG\\" /Fd"X64\DEBUG\VC110.PDB" /Gd /TC C:\TEMP\RODRIGOFRANCA\SCCONTROLLER\SCCONTROLLER\LUA4.0\LSTRING.C
^C:\TEMP\RODRIGOFRANCA\SCCONTROLLER\SCCONTROLLER\LUA4.0\LSTRLIB.C
/c /Zi /nologo /W3 /WX- /Od /D WIN32 /D _DEBUG /D _LIB /D _MBCS /Gm /EHsc /RTC1 /MTd /GS /fp:precise /Zc:wchar_t /Zc:forScope /Fo"X64\DEBUG\\" /Fd"X64\DEBUG\VC110.PDB" /Gd /TC C:\TEMP\RODRIGOFRANCA\SCCONTROLLER\SCCONTROLLER\LUA4.0\LSTRLIB.C
^C:\TEMP\RODRIGOFRANCA\SCCONTROLLER\SCCONTROLLER\LUA4.0\LS_ODBC.C
/c /Zi /nologo /W3 /WX- /Od /D WIN32 /D _DEBUG /D _LIB /D _MBCS /Gm /EHsc /RTC1 /MTd /GS /fp:precise /Zc:wchar_t /Zc:forScope /Fo"X64\DEBUG\\" /Fd"X64\DEBUG\VC110.PDB" /Gd /TC C:\TEMP\RODRIGOFRANCA\SCCONTROLLER\SCCONTROLLER\LUA4.0\LS_ODBC.C
^C:\TEMP\RODRIGOFRANCA\SCCONTROLLER\SCCONTROLLER\LUA4.0\LTABLE.C
/c /Zi /nologo /W3 /WX- /Od /D WIN32 /D _DEBUG /D _LIB /D _MBCS /Gm /EHsc /RTC1 /MTd /GS /fp:precise /Zc:wchar_t /Zc:forScope /Fo"X64\DEBUG\\" /Fd"X64\DEBUG\VC110.PDB" /Gd /TC C:\TEMP\RODRIGOFRANCA\SCCONTROLLER\SCCONTROLLER\LUA4.0\LTABLE.C
^C:\TEMP\RODRIGOFRANCA\SCCONTROLLER\SCCONTROLLER\LUA4.0\LTESTS.C
/c /Zi /nologo /W3 /WX- /Od /D WIN32 /D _DEBUG /D _LIB /D _MBCS /Gm /EHsc /RTC1 /MTd /GS /fp:precise /Zc:wchar_t /Zc:forScope /Fo"X64\DEBUG\\" /Fd"X64\DEBUG\VC110.PDB" /Gd /TC C:\TEMP\RODRIGOFRANCA\SCCONTROLLER\SCCONTROLLER\LUA4.0\LTESTS.C
^C:\TEMP\RODRIGOFRANCA\SCCONTROLLER\SCCONTROLLER\LUA4.0\LTM.C
/c /Zi /nologo /W3 /WX- /Od /D WIN32 /D _DEBUG /D _LIB /D _MBCS /Gm /EHsc /RTC1 /MTd /GS /fp:precise /Zc:wchar_t /Zc:forScope /Fo"X64\DEBUG\\" /Fd"X64\DEBUG\VC110.PDB" /Gd /TC C:\TEMP\RODRIGOFRANCA\SCCONTROLLER\SCCONTROLLER\LUA4.0\LTM.C
^C:\TEMP\RODRIGOFRANCA\SCCONTROLLER\SCCONTROLLER\LUA4.0\LUASOCKET.C
/c /Zi /nologo /W3 /WX- /Od /D WIN32 /D _DEBUG /D _LIB /D _MBCS /Gm /EHsc /RTC1 /MTd /GS /fp:precise /Zc:wchar_t /Zc:forScope /Fo"X64\DEBUG\\" /Fd"X64\DEBUG\VC110.PDB" /Gd /TC C:\TEMP\RODRIGOFRANCA\SCCONTROLLER\SCCONTROLLER\LUA4.0\LUASOCKET.C
^C:\TEMP\RODRIGOFRANCA\SCCONTROLLER\SCCONTROLLER\LUA4.0\LUASQL.C
/c /Zi /nologo /W3 /WX- /Od /D WIN32 /D _DEBUG /D _LIB /D _MBCS /Gm /EHsc /RTC1 /MTd /GS /fp:precise /Zc:wchar_t /Zc:forScope /Fo"X64\DEBUG\\" /Fd"X64\DEBUG\VC110.PDB" /Gd /TC C:\TEMP\RODRIGOFRANCA\SCCONTROLLER\SCCONTROLLER\LUA4.0\LUASQL.C
^C:\TEMP\RODRIGOFRANCA\SCCONTROLLER\SCCONTROLLER\LUA4.0\LUNDUMP.C
/c /Zi /nologo /W3 /WX- /Od /D WIN32 /D _DEBUG /D _LIB /D _MBCS /Gm /EHsc /RTC1 /MTd /GS /fp:precise /Zc:wchar_t /Zc:forScope /Fo"X64\DEBUG\\" /Fd"X64\DEBUG\VC110.PDB" /Gd /TC C:\TEMP\RODRIGOFRANCA\SCCONTROLLER\SCCONTROLLER\LUA4.0\LUNDUMP.C
^C:\TEMP\RODRIGOFRANCA\SCCONTROLLER\SCCONTROLLER\LUA4.0\LVM.C
/c /Zi /nologo /W3 /WX- /Od /D WIN32 /D _DEBUG /D _LIB /D _MBCS /Gm /EHsc /RTC1 /MTd /GS /fp:precise /Zc:wchar_t /Zc:forScope /Fo"X64\DEBUG\\" /Fd"X64\DEBUG\VC110.PDB" /Gd /TC C:\TEMP\RODRIGOFRANCA\SCCONTROLLER\SCCONTROLLER\LUA4.0\LVM.C
^C:\TEMP\RODRIGOFRANCA\SCCONTROLLER\SCCONTROLLER\LUA4.0\LZIO.C
/c /Zi /nologo /W3 /WX- /Od /D WIN32 /D _DEBUG /D _LIB /D _MBCS /Gm /EHsc /RTC1 /MTd /GS /fp:precise /Zc:wchar_t /Zc:forScope /Fo"X64\DEBUG\\" /Fd"X64\DEBUG\VC110.PDB" /Gd /TC C:\TEMP\RODRIGOFRANCA\SCCONTROLLER\SCCONTROLLER\LUA4.0\LZIO.C
^C:\PROJETOS\C++\SCCONTROLLER\LUA4.0\LAPI.C
/c /Zi /nologo /W3 /WX- /Od /D WIN32 /D _DEBUG /D _LIB /D _MBCS /Gm /EHsc /RTC1 /MTd /GS /fp:precise /Zc:wchar_t /Zc:forScope /Fo"X64\DEBUG\\" /Fd"X64\DEBUG\VC110.PDB" /Gd /TC C:\PROJETOS\C++\SCCONTROLLER\LUA4.0\LAPI.C
^C:\PROJETOS\C++\SCCONTROLLER\LUA4.0\LAUXLIB.C
/c /Zi /nologo /W3 /WX- /Od /D WIN32 /D _DEBUG /D _LIB /D _MBCS /Gm /EHsc /RTC1 /MTd /GS /fp:precise /Zc:wchar_t /Zc:forScope /Fo"X64\DEBUG\\" /Fd"X64\DEBUG\VC110.PDB" /Gd /TC C:\PROJETOS\C++\SCCONTROLLER\LUA4.0\LAUXLIB.C
^C:\PROJETOS\C++\SCCONTROLLER\LUA4.0\LBASELIB.C
/c /Zi /nologo /W3 /WX- /Od /D WIN32 /D _DEBUG /D _LIB /D _MBCS /Gm /EHsc /RTC1 /MTd /GS /fp:precise /Zc:wchar_t /Zc:forScope /Fo"X64\DEBUG\\" /Fd"X64\DEBUG\VC110.PDB" /Gd /TC C:\PROJETOS\C++\SCCONTROLLER\LUA4.0\LBASELIB.C
^C:\PROJETOS\C++\SCCONTROLLER\LUA4.0\LCODE.C
/c /Zi /nologo /W3 /WX- /Od /D WIN32 /D _DEBUG /D _LIB /D _MBCS /Gm /EHsc /RTC1 /MTd /GS /fp:precise /Zc:wchar_t /Zc:forScope /Fo"X64\DEBUG\\" /Fd"X64\DEBUG\VC110.PDB" /Gd /TC C:\PROJETOS\C++\SCCONTROLLER\LUA4.0\LCODE.C
^C:\PROJETOS\C++\SCCONTROLLER\LUA4.0\LDBLIB.C
/c /Zi /nologo /W3 /WX- /Od /D WIN32 /D _DEBUG /D _LIB /D _MBCS /Gm /EHsc /RTC1 /MTd /GS /fp:precise /Zc:wchar_t /Zc:forScope /Fo"X64\DEBUG\\" /Fd"X64\DEBUG\VC110.PDB" /Gd /TC C:\PROJETOS\C++\SCCONTROLLER\LUA4.0\LDBLIB.C
^C:\PROJETOS\C++\SCCONTROLLER\LUA4.0\LDEBUG.C
/c /Zi /nologo /W3 /WX- /Od /D WIN32 /D _DEBUG /D _LIB /D _MBCS /Gm /EHsc /RTC1 /MTd /GS /fp:precise /Zc:wchar_t /Zc:forScope /Fo"X64\DEBUG\\" /Fd"X64\DEBUG\VC110.PDB" /Gd /TC C:\PROJETOS\C++\SCCONTROLLER\LUA4.0\LDEBUG.C
^C:\PROJETOS\C++\SCCONTROLLER\LUA4.0\LDO.C
/c /Zi /nologo /W3 /WX- /Od /D WIN32 /D _DEBUG /D _LIB /D _MBCS /Gm /EHsc /RTC1 /MTd /GS /fp:precise /Zc:wchar_t /Zc:forScope /Fo"X64\DEBUG\\" /Fd"X64\DEBUG\VC110.PDB" /Gd /TC C:\PROJETOS\C++\SCCONTROLLER\LUA4.0\LDO.C
^C:\PROJETOS\C++\SCCONTROLLER\LUA4.0\LFUNC.C
/c /Zi /nologo /W3 /WX- /Od /D WIN32 /D _DEBUG /D _LIB /D _MBCS /Gm /EHsc /RTC1 /MTd /GS /fp:precise /Zc:wchar_t /Zc:forScope /Fo"X64\DEBUG\\" /Fd"X64\DEBUG\VC110.PDB" /Gd /TC C:\PROJETOS\C++\SCCONTROLLER\LUA4.0\LFUNC.C
^C:\PROJETOS\C++\SCCONTROLLER\LUA4.0\LGC.C
/c /Zi /nologo /W3 /WX- /Od /D WIN32 /D _DEBUG /D _LIB /D _MBCS /Gm /EHsc /RTC1 /MTd /GS /fp:precise /Zc:wchar_t /Zc:forScope /Fo"X64\DEBUG\\" /Fd"X64\DEBUG\VC110.PDB" /Gd /TC C:\PROJETOS\C++\SCCONTROLLER\LUA4.0\LGC.C
^C:\PROJETOS\C++\SCCONTROLLER\LUA4.0\LIOLIB.C
/c /Zi /nologo /W3 /WX- /Od /D WIN32 /D _DEBUG /D _LIB /D _MBCS /Gm /EHsc /RTC1 /MTd /GS /fp:precise /Zc:wchar_t /Zc:forScope /Fo"X64\DEBUG\\" /Fd"X64\DEBUG\VC110.PDB" /Gd /TC C:\PROJETOS\C++\SCCONTROLLER\LUA4.0\LIOLIB.C
^C:\PROJETOS\C++\SCCONTROLLER\LUA4.0\LLEX.C
/c /Zi /nologo /W3 /WX- /Od /D WIN32 /D _DEBUG /D _LIB /D _MBCS /Gm /EHsc /RTC1 /MTd /GS /fp:precise /Zc:wchar_t /Zc:forScope /Fo"X64\DEBUG\\" /Fd"X64\DEBUG\VC110.PDB" /Gd /TC C:\PROJETOS\C++\SCCONTROLLER\LUA4.0\LLEX.C
^C:\PROJETOS\C++\SCCONTROLLER\LUA4.0\LMATHLIB.C
/c /Zi /nologo /W3 /WX- /Od /D WIN32 /D _DEBUG /D _LIB /D _MBCS /Gm /EHsc /RTC1 /MTd /GS /fp:precise /Zc:wchar_t /Zc:forScope /Fo"X64\DEBUG\\" /Fd"X64\DEBUG\VC110.PDB" /Gd /TC C:\PROJETOS\C++\SCCONTROLLER\LUA4.0\LMATHLIB.C
^C:\PROJETOS\C++\SCCONTROLLER\LUA4.0\LMEM.C
/c /Zi /nologo /W3 /WX- /Od /D WIN32 /D _DEBUG /D _LIB /D _MBCS /Gm /EHsc /RTC1 /MTd /GS /fp:precise /Zc:wchar_t /Zc:forScope /Fo"X64\DEBUG\\" /Fd"X64\DEBUG\VC110.PDB" /Gd /TC C:\PROJETOS\C++\SCCONTROLLER\LUA4.0\LMEM.C
^C:\PROJETOS\C++\SCCONTROLLER\LUA4.0\LOBJECT.C
/c /Zi /nologo /W3 /WX- /Od /D WIN32 /D _DEBUG /D _LIB /D _MBCS /Gm /EHsc /RTC1 /MTd /GS /fp:precise /Zc:wchar_t /Zc:forScope /Fo"X64\DEBUG\\" /Fd"X64\DEBUG\VC110.PDB" /Gd /TC C:\PROJETOS\C++\SCCONTROLLER\LUA4.0\LOBJECT.C
^C:\PROJETOS\C++\SCCONTROLLER\LUA4.0\LPARSER.C
/c /Zi /nologo /W3 /WX- /Od /D WIN32 /D _DEBUG /D _LIB /D _MBCS /Gm /EHsc /RTC1 /MTd /GS /fp:precise /Zc:wchar_t /Zc:forScope /Fo"X64\DEBUG\\" /Fd"X64\DEBUG\VC110.PDB" /Gd /TC C:\PROJETOS\C++\SCCONTROLLER\LUA4.0\LPARSER.C
^C:\PROJETOS\C++\SCCONTROLLER\LUA4.0\LSTATE.C
/c /Zi /nologo /W3 /WX- /Od /D WIN32 /D _DEBUG /D _LIB /D _MBCS /Gm /EHsc /RTC1 /MTd /GS /fp:precise /Zc:wchar_t /Zc:forScope /Fo"X64\DEBUG\\" /Fd"X64\DEBUG\VC110.PDB" /Gd /TC C:\PROJETOS\C++\SCCONTROLLER\LUA4.0\LSTATE.C
^C:\PROJETOS\C++\SCCONTROLLER\LUA4.0\LSTRING.C
/c /Zi /nologo /W3 /WX- /Od /D WIN32 /D _DEBUG /D _LIB /D _MBCS /Gm /EHsc /RTC1 /MTd /GS /fp:precise /Zc:wchar_t /Zc:forScope /Fo"X64\DEBUG\\" /Fd"X64\DEBUG\VC110.PDB" /Gd /TC C:\PROJETOS\C++\SCCONTROLLER\LUA4.0\LSTRING.C
^C:\PROJETOS\C++\SCCONTROLLER\LUA4.0\LSTRLIB.C
/c /Zi /nologo /W3 /WX- /Od /D WIN32 /D _DEBUG /D _LIB /D _MBCS /Gm /EHsc /RTC1 /MTd /GS /fp:precise /Zc:wchar_t /Zc:forScope /Fo"X64\DEBUG\\" /Fd"X64\DEBUG\VC110.PDB" /Gd /TC C:\PROJETOS\C++\SCCONTROLLER\LUA4.0\LSTRLIB.C
^C:\PROJETOS\C++\SCCONTROLLER\LUA4.0\LS_ODBC.C
/c /Zi /nologo /W3 /WX- /Od /D WIN32 /D _DEBUG /D _LIB /D _MBCS /Gm /EHsc /RTC1 /MTd /GS /fp:precise /Zc:wchar_t /Zc:forScope /Fo"X64\DEBUG\\" /Fd"X64\DEBUG\VC110.PDB" /Gd /TC C:\PROJETOS\C++\SCCONTROLLER\LUA4.0\LS_ODBC.C
^C:\PROJETOS\C++\SCCONTROLLER\LUA4.0\LTABLE.C
/c /Zi /nologo /W3 /WX- /Od /D WIN32 /D _DEBUG /D _LIB /D _MBCS /Gm /EHsc /RTC1 /MTd /GS /fp:precise /Zc:wchar_t /Zc:forScope /Fo"X64\DEBUG\\" /Fd"X64\DEBUG\VC110.PDB" /Gd /TC C:\PROJETOS\C++\SCCONTROLLER\LUA4.0\LTABLE.C
^C:\PROJETOS\C++\SCCONTROLLER\LUA4.0\LTESTS.C
/c /Zi /nologo /W3 /WX- /Od /D WIN32 /D _DEBUG /D _LIB /D _MBCS /Gm /EHsc /RTC1 /MTd /GS /fp:precise /Zc:wchar_t /Zc:forScope /Fo"X64\DEBUG\\" /Fd"X64\DEBUG\VC110.PDB" /Gd /TC C:\PROJETOS\C++\SCCONTROLLER\LUA4.0\LTESTS.C
^C:\PROJETOS\C++\SCCONTROLLER\LUA4.0\LTM.C
/c /Zi /nologo /W3 /WX- /Od /D WIN32 /D _DEBUG /D _LIB /D _MBCS /Gm /EHsc /RTC1 /MTd /GS /fp:precise /Zc:wchar_t /Zc:forScope /Fo"X64\DEBUG\\" /Fd"X64\DEBUG\VC110.PDB" /Gd /TC C:\PROJETOS\C++\SCCONTROLLER\LUA4.0\LTM.C
^C:\PROJETOS\C++\SCCONTROLLER\LUA4.0\LUASOCKET.C
/c /Zi /nologo /W3 /WX- /Od /D WIN32 /D _DEBUG /D _LIB /D _MBCS /Gm /EHsc /RTC1 /MTd /GS /fp:precise /Zc:wchar_t /Zc:forScope /Fo"X64\DEBUG\\" /Fd"X64\DEBUG\VC110.PDB" /Gd /TC C:\PROJETOS\C++\SCCONTROLLER\LUA4.0\LUASOCKET.C
^C:\PROJETOS\C++\SCCONTROLLER\LUA4.0\LUASQL.C
/c /Zi /nologo /W3 /WX- /Od /D WIN32 /D _DEBUG /D _LIB /D _MBCS /Gm /EHsc /RTC1 /MTd /GS /fp:precise /Zc:wchar_t /Zc:forScope /Fo"X64\DEBUG\\" /Fd"X64\DEBUG\VC110.PDB" /Gd /TC C:\PROJETOS\C++\SCCONTROLLER\LUA4.0\LUASQL.C
^C:\PROJETOS\C++\SCCONTROLLER\LUA4.0\LUNDUMP.C
/c /Zi /nologo /W3 /WX- /Od /D WIN32 /D _DEBUG /D _LIB /D _MBCS /Gm /EHsc /RTC1 /MTd /GS /fp:precise /Zc:wchar_t /Zc:forScope /Fo"X64\DEBUG\\" /Fd"X64\DEBUG\VC110.PDB" /Gd /TC C:\PROJETOS\C++\SCCONTROLLER\LUA4.0\LUNDUMP.C
^C:\PROJETOS\C++\SCCONTROLLER\LUA4.0\LVM.C
/c /Zi /nologo /W3 /WX- /Od /D WIN32 /D _DEBUG /D _LIB /D _MBCS /Gm /EHsc /RTC1 /MTd /GS /fp:precise /Zc:wchar_t /Zc:forScope /Fo"X64\DEBUG\\" /Fd"X64\DEBUG\VC110.PDB" /Gd /TC C:\PROJETOS\C++\SCCONTROLLER\LUA4.0\LVM.C
^C:\PROJETOS\C++\SCCONTROLLER\LUA4.0\LZIO.C
/c /Zi /nologo /W3 /WX- /Od /D WIN32 /D _DEBUG /D _LIB /D _MBCS /Gm /EHsc /RTC1 /MTd /GS /fp:precise /Zc:wchar_t /Zc:forScope /Fo"X64\DEBUG\\" /Fd"X64\DEBUG\VC110.PDB" /Gd /TC C:\PROJETOS\C++\SCCONTROLLER\LUA4.0\LZIO.C
